%!PS-Adobe-3.0 EPSF-3.0
%%Creator: PS_dot.c,v 1.38 2007/02/02 15:18:13 ivo Exp $, ViennaRNA-1.8.2
%%CreationDate: Thu Apr 11 11:08:17 2013
%%Title: RNA Secondary Structure Plot
%%BoundingBox: 66 210 518 662
%%DocumentFonts: Helvetica
%%Pages: 1
%%EndComments

%Options: 
% to switch off outline pairs of sequence comment or
% delete the appropriate line near the end of the file

%%BeginProlog
/RNAplot 100 dict def
RNAplot begin
/fsize  14 def
/outlinecolor {0.2 setgray} bind def
/paircolor    {0.2 setgray} bind def
/seqcolor     {0   setgray} bind def
/cshow  { dup stringwidth pop -2 div fsize -3 div rmoveto show} bind def
/min { 2 copy gt { exch } if pop } bind def
/max { 2 copy lt { exch } if pop } bind def
/drawoutline {
  gsave outlinecolor newpath
  coor 0 get aload pop 0.8 0 360 arc % draw 5' circle of 1st sequence
  currentdict /cutpoint known        % check if cutpoint is defined
  {coor 0 cutpoint getinterval
   {aload pop lineto} forall         % draw outline of 1st sequence
   coor cutpoint get aload pop
   2 copy moveto 0.8 0 360 arc       % draw 5' circle of 2nd sequence
   coor cutpoint coor length cutpoint sub getinterval
   {aload pop lineto} forall}        % draw outline of 2nd sequence
  {coor {aload pop lineto} forall}   % draw outline as a whole
  ifelse
  stroke grestore
} bind def
/drawpairs {
  paircolor
  0.7 setlinewidth
  [9 3.01] 9 setdash
  newpath
  pairs {aload pop
     coor exch 1 sub get aload pop moveto
     coor exch 1 sub get aload pop lineto
  } forall
  stroke
} bind def
% draw bases
/drawbases {
  [] 0 setdash
  seqcolor
  0
  coor {
    aload pop moveto
    dup sequence exch 1 getinterval cshow
    1 add
  } forall
  pop
} bind def

/init {
  /Helvetica findfont fsize scalefont setfont
  1 setlinejoin
  1 setlinecap
  0.8 setlinewidth
  72 216 translate
  % find the coordinate range
  /xmax -1000 def /xmin 10000 def
  /ymax -1000 def /ymin 10000 def
  coor {
      aload pop
      dup ymin lt {dup /ymin exch def} if
      dup ymax gt {/ymax exch def} {pop} ifelse
      dup xmin lt {dup /xmin exch def} if
      dup xmax gt {/xmax exch def} {pop} ifelse
  } forall
  /size {xmax xmin sub ymax ymin sub max} bind def
  72 6 mul size div dup scale
  size xmin sub xmax sub 2 div size ymin sub ymax sub 2 div
  translate
} bind def
end
%%EndProlog
RNAplot begin
% data start here
/sequence (\
ACUUUUAAAGGAUAAAAGUAAUCCACUGGUCUUAGGAGCCAUUCAUCUUGGUGCAACUCCAAGUAAAAGUA\
) def
/coor [
[112.969 226.515]
[112.315 211.530]
[111.660 196.544]
[111.006 181.558]
[110.352 166.573]
[109.698 151.587]
[109.043 136.601]
[90.881 134.859]
[76.478 125.050]
[68.954 110.245]
[54.011 111.552]
[39.068 112.860]
[24.125 114.167]
[15.305 127.079]
[0.234 131.251]
[-13.971 124.713]
[-20.603 110.551]
[-16.531 95.453]
[-3.677 86.548]
[11.889 88.039]
[22.818 99.224]
[37.761 97.917]
[52.704 96.609]
[67.647 95.302]
[71.068 84.776]
[77.806 75.995]
[87.088 69.965]
[84.484 55.193]
[81.879 40.421]
[79.274 25.649]
[65.642 17.987]
[60.172 3.337]
[65.448 -11.384]
[78.977 -19.225]
[94.373 -16.484]
[104.365 -4.455]
[104.236 11.182]
[94.046 23.044]
[96.651 37.816]
[99.256 52.588]
[101.860 67.360]
[111.713 68.585]
[120.982 72.788]
[128.768 79.721]
[134.270 88.869]
[136.863 99.480]
[136.172 110.631]
[151.115 111.938]
[166.058 113.246]
[181.001 114.553]
[195.943 115.861]
[206.872 104.676]
[222.438 103.184]
[235.292 112.090]
[239.365 127.188]
[232.732 141.350]
[218.527 147.888]
[203.457 143.716]
[194.636 130.803]
[179.693 129.496]
[164.750 128.189]
[149.807 126.881]
[134.864 125.574]
[124.029 135.947]
[124.683 150.932]
[125.338 165.918]
[125.992 180.904]
[126.646 195.890]
[127.300 210.875]
[127.955 225.861]
[130.983 245.005]
] def
/pairs [
[1 70]
[2 69]
[3 68]
[4 67]
[5 66]
[6 65]
[7 64]
[10 24]
[11 23]
[12 22]
[13 21]
[27 41]
[28 40]
[29 39]
[30 38]
[47 63]
[48 62]
[49 61]
[50 60]
[51 59]
] def

init

% switch off outline pairs or bases by removing these lines
drawoutline
drawpairs
drawbases
% show it
showpage
end
%%EOF
