<?xml version="1.0" encoding="UTF-8" standalone="no"?>
<!-- Created with Inkscape (http://www.inkscape.org/) -->

<svg
   xmlns:dc="http://purl.org/dc/elements/1.1/"
   xmlns:cc="http://creativecommons.org/ns#"
   xmlns:rdf="http://www.w3.org/1999/02/22-rdf-syntax-ns#"
   xmlns:svg="http://www.w3.org/2000/svg"
   xmlns="http://www.w3.org/2000/svg"
   xmlns:xlink="http://www.w3.org/1999/xlink"
   xmlns:sodipodi="http://sodipodi.sourceforge.net/DTD/sodipodi-0.dtd"
   xmlns:inkscape="http://www.inkscape.org/namespaces/inkscape"
   width="99"
   height="24"
   id="svg2"
   version="1.1"
   inkscape:version="0.48.2 r9819"
   sodipodi:docname="simple.svg">
  <defs
     id="defs4">
    <filter
       inkscape:collect="always"
       id="filter3862"
       color-interpolation-filters="sRGB">
      <feGaussianBlur
         inkscape:collect="always"
         stdDeviation="0.18019313"
         id="feGaussianBlur3864" />
    </filter>
    <filter
       inkscape:collect="always"
       id="filter3960"
       x="-0.14549297"
       width="1.2909859"
       y="-0.067606024"
       height="1.1352121"
       color-interpolation-filters="sRGB">
      <feGaussianBlur
         inkscape:collect="always"
         stdDeviation="0.2472744"
         id="feGaussianBlur3962" />
    </filter>
    <filter
       inkscape:collect="always"
       id="filter3964"
       x="-0.14549297"
       width="1.2909859"
       y="-0.067606024"
       height="1.1352121"
       color-interpolation-filters="sRGB">
      <feGaussianBlur
         inkscape:collect="always"
         stdDeviation="0.2472744"
         id="feGaussianBlur3966" />
    </filter>
  </defs>
  <sodipodi:namedview
     id="base"
     pagecolor="#ffffff"
     bordercolor="#666666"
     borderopacity="1.0"
     inkscape:pageopacity="0.0"
     inkscape:pageshadow="2"
     inkscape:zoom="8.0606061"
     inkscape:cx="54.707118"
     inkscape:cy="26.691367"
     inkscape:document-units="px"
     inkscape:current-layer="layer1"
     showgrid="false"
     inkscape:window-width="1680"
     inkscape:window-height="1003"
     inkscape:window-x="0"
     inkscape:window-y="25"
     inkscape:window-maximized="1"
     fit-margin-top="0"
     fit-margin-left="0"
     fit-margin-right="0"
     fit-margin-bottom="0" />
  <metadata
     id="metadata7">
    <rdf:RDF>
      <cc:Work
         rdf:about="">
        <dc:format>image/svg+xml</dc:format>
        <dc:type
           rdf:resource="http://purl.org/dc/dcmitype/StillImage" />
        <dc:title />
      </cc:Work>
    </rdf:RDF>
  </metadata>
  <g
     inkscape:label="Layer 1"
     inkscape:groupmode="layer"
     id="layer1"
     transform="translate(-213.35716,-488.93359)">
    <image
       y="488.93359"
       x="213.35716"
       id="image3047"
       xlink:href="data:image/png;base64,iVBORw0KGgoAAAANSUhEUgAAAGMAAAAYCAYAAADu3kOXAAAABHNCSVQICAgIfAhkiAAAA2xJREFU aIHtms1rXFUYh5/3fp17Z0aTqRQlitERilCpoK5FogVddCPudCkuhYAbwaXgphBwWepGFFxUN90U qtV/wE2h4MZgSo2mQj505t5z7tdxcZKxSJLOpDOZkplndTlwzv2deef3vufjCvdw+fvP7dXuNX4u bt7bTBREzBgdeZnzcniOC603ef+ND2WvXQBu/X3LfvbTp6x7G66xLQcMM2NU2NQCsJA9zsevfcLZ R8+KAJy/smR/9X9DEkFiF4jgkWBySqeA8p8Sqy02szxXPcP1d26IfPPjF/ZS72tUrADnijiOJyx1 Osi3cipdYbThg+a7yPkrS/Z29Dtew8NLPKq4mrTGqcHXPnVWU6c1T+dPEgB0Gh382CdMQkTN6sVx YcVS2IKKijI3BHfsH7AF3oIHGcT18Ckq9o6W1nStj9RvnBx1LvfjoLlq0YR5iLGGoNPoAKBQrlbM ysXI0bhAxPv8uNpomMMFYzVdRTUVfulDF7Dj+3fM2MchJVS9CgSCM+Gz+FFMHO0GIDl+gVNNAbrQ GGMIbheuZjSDJnVYI2ZWwI8TMUI37yKpECw2F/Eij1g5ZyTx4NbIbDYujdODAl1qamqCtd4asY3x Ax+A0IQDj5PbfFwSTzyRuPO+whRUpkKn2jmjFbWgBPWYAjXcoNPojkSSkcw7kYRMZaAglZTgbu8u G3aDJEqQVCClfzQyCDuy88CippFIIrzUAyDdTl3N6KhFUD5xw9UMNT+cNbbs1siFTgNtaff3HyYz UFUEq2bN7Ss0NOYb1Fk91KAzZwzPnJ1jm20A9KYLiDbaOcNXEWEzRIVq4H3GniPmmR+L4JNMW9r9 Z9M0FL2CSuUE6+kGeKBEucNCf/DV1Kgx1kzs3Yeh5P6p+zDt/++f4Yp/kRbuCN0YSCF4qfkim+zg NTznjApUc8gl1YgwPKTBGGCJeZD2w/qaymA8Q2ELTttTBK+0XuDLv75FRFBqN03tbh+O85Ipk4d3 iZzYg3P3ILr366/1bvHeNtie5a3Tr7o78I+uLttN2SFMQoLEXbeqxmTcMS2Y1FBmJUVWcMrOcfHC ivQ/SFj5YYX1Yh2AqBXhRd5ExZ5k6tytWPNuzkK4wPLry/99kLDHdze+sje7v3Cn+hOAMJ5cMT/J FLrgKf8JzrWe5+2l9/ox+BcguUo/PQ7HSAAAAABJRU5ErkJggg== "
       height="24"
       width="99" />
    <text
       xml:space="preserve"
       style="font-size:20px;font-style:normal;font-variant:normal;font-weight:normal;font-stretch:normal;line-height:125%;letter-spacing:0px;word-spacing:0px;fill:#ffffff;fill-opacity:1;stroke:none;filter:url(#filter3862);font-family:Ubuntu;-inkscape-font-specification:Ubuntu"
       x="220.88847"
       y="505.6676"
       id="text3050"
       sodipodi:linespacing="125%"
       transform="matrix(1.031173,0,0,1.031173,5.9323561,-15.099726)"><tspan
         sodipodi:role="line"
         id="tspan3052"
         x="220.88847"
         y="505.6676"
         style="font-size:14px;fill:#ffffff;fill-opacity:1;stroke:none">Simple</tspan></text>
    <path
       style="fill:none;stroke:#ffffff;stroke-opacity:1;filter:url(#filter3960)"
       d="m 292.13142,497.90655 4.07895,4.3891 -4.07895,4.38909"
       id="path3866"
       inkscape:connector-curvature="0"
       sodipodi:nodetypes="ccc"
       transform="matrix(1.2815706,0,0,1,-88.25562,0)" />
    <path
       sodipodi:nodetypes="ccc"
       inkscape:connector-curvature="0"
       id="path3868"
       d="m 295.75924,497.90655 4.07895,4.3891 -4.07895,4.38909"
       style="fill:none;stroke:#ffffff;stroke-opacity:1;filter:url(#filter3964)"
       transform="matrix(1.2815706,0,0,1,-88.25562,0)" />
  </g>
</svg>
